…
── Column specification ────────────────────────────────────────────────────────
cols(
  country = col_character(),
  year = col_double(),
  pop = col_double(),
  continent = col_character(),
  lifeExp = col_double(),
  gdpPercap = col_double()
)
```
```R
gapminder
```
```{r}
# A tibble: 1,704 x 6
   country      year      pop continent lifeExp gdpPercap
   <chr>       <dbl>    <dbl> <chr>       <dbl>     <dbl>
 1 Afghanistan  1952  8425333 Asia         28.8      779.
 2 Afghanistan  1957  9240934 Asia         30.3      821.
 3 Afghanistan  1962 10267083 Asia         32.0      853.
 4 Afghanistan  1967 11537966 Asia         34.0      836.
 5 Afghanistan  1972 13079460 Asia         36.1      740.
 6 Afghanistan  1977 14880372 Asia         38.4      786.
 7 Afghanistan  1982 12881816 Asia         39.9      978.
 8 Afghanistan  1987 13867957 Asia         40.8      852.
 9 Afghanistan  1992 16317921 Asia         41.7      649.
10 Afghanistan  1997 22227415 Asia         41.8      635.
# … with 1,694 more rows
```
…
# Using filter()

To select on some subset of rows:
```R
filter(gapminder, continent == "Europe")
```
```{r}
# A tibble: 360 x 6
   country  year     pop continent lifeExp gdpPercap
   <chr>   <dbl>   <dbl> <chr>       <dbl>     <dbl>
 1 Albania  1952 1282697 Europe       55.2     1601.
 2 Albania  1957 1476505 Europe       59.3     1942.
 3 Albania  1962 1728137 Europe       64.8     2313.
 4 Albania  1967 1984060 Europe       66.2     2760.
 5 Albania  1972 2263554 Europe       67.7     3313.
 6 Albania  1977 2509048 Europe       68.9     3533.
 7 Albania  1982 2780097 Europe       70.4     3631.
 8 Albania  1987 3075321 Europe       72       3739.
 9 Albania  1992 3326498 Europe       71.6     2497.
10 Albania  1997 3428038 Europe       73.0     3193.
# … with 350 more rows
```
…
As with last time, first we pass the gapminder dataframe to the filter() function, then we pass the filtered version of the gapminder dataframe to the select() function. Note: The order of operations is very important in this case. If we used ‘select’ first, filter would not be able to find the variable continent since we would have removed it in the previous step.

# Using group_by() and summarize()

Now, we were supposed to be reducing the error prone repetitiveness of what can be done with base R, but up to now we haven’t done that since we would have to repeat the above for each continent. Instead of filter(), which will only pass observations that meet your criteria (in the above: continent=="Europe"), we can use group_by(), which will essentially use every unique criteria that you could have used in filter.
```R
gapminder
```
```{r}
# A tibble: 1,704 x 6
   country      year      pop continent lifeExp gdpPercap
   <chr>       <dbl>    <dbl> <chr>       <dbl>     <dbl>
 1 Afghanistan  1952  8425333 Asia         28.8      779.
 2 Afghanistan  1957  9240934 Asia         30.3      821.
 3 Afghanistan  1962 10267083 Asia         32.0      853.
 4 Afghanistan  1967 11537966 Asia         34.0      836.
 5 Afghanistan  1972 13079460 Asia         36.1      740.
 6 Afghanistan  1977 14880372 Asia         38.4      786.
 7 Afghanistan  1982 12881816 Asia         39.9      978.
 8 Afghanistan  1987 13867957 Asia         40.8      852.
 9 Afghanistan  1992 16317921 Asia         41.7      649.
10 Afghanistan  1997 22227415 Asia         41.8      635.
# … with 1,694 more rows
```
```R
gapminder %>% group_by(continent)
```
```{r}
# A tibble: 1,704 x 6
# Groups:   continent [5]
   country      year      pop continent lifeExp gdpPercap
   <chr>       <dbl>    <dbl> <chr>       <dbl>     <dbl>
 1 Afghanistan  1952  8425333 Asia         28.8      779.
 2 Afghanistan  1957  9240934 Asia         30.3      821.
 3 Afghanistan  1962 10267083 Asia         32.0      853.
 4 Afghanistan  1967 11537966 Asia         34.0      836.
 5 Afghanistan  1972 13079460 Asia         36.1      740.
 6 Afghanistan  1977 14880372 Asia         38.4      786.
 7 Afghanistan  1982 12881816 Asia         39.9      978.
 8 Afghanistan  1987 13867957 Asia         40.8      852.
 9 Afghanistan  1992 16317921 Asia         41.7      649.
10 Afghanistan  1997 22227415 Asia         41.8      635.
# … with 1,694 more rows
```
…
